0
SECTION
2
HEADER
9
$INSUNITS
70
4
9
$ACADVER
1
AC1014
9
$HANDSEED
5
FFFF
0
ENDSEC
0
SECTION
2
TABLES
0
TABLE
2
VPORT
5
8
100
AcDbSymbolTable
0
ENDTAB
0
TABLE
2
LTYPE
5
5
100
AcDbSymbolTable
0
LTYPE
5
14
100
AcDbSymbolTableRecord
100
AcDbLinetypeTableRecord
2
BYBLOCK
70
0
0
LTYPE
5
15
100
AcDbSymbolTableRecord
100
AcDbLinetypeTableRecord
2
BYLAYER
70
0
0
ENDTAB
0
TABLE
2
LAYER
5
2
100
AcDbSymbolTable
70
2
0
LAYER
5
50
100
AcDbSymbolTableRecord
100
AcDbLayerTableRecord
2
0
70
0
6
CONTINUOUS
0
ENDTAB
0
TABLE
2
STYLE
5
3
100
AcDbSymbolTable
70
1
0
STYLE
5
11
100
AcDbSymbolTableRecord
100
AcDbTextStyleTableRecord
2
STANDARD
70
0
0
ENDTAB
0
TABLE
2
VIEW
5
6
100
AcDbSymbolTable
70
0
0
ENDTAB
0
TABLE
2
UCS
5
7
100
AcDbSymbolTable
70
0
0
ENDTAB
0
TABLE
2
APPID
5
9
100
AcDbSymbolTable
70
2
0
APPID
5
12
100
AcDbSymbolTableRecord
100
AcDbRegAppTableRecord
2
ACAD
70
0
0
ENDTAB
0
TABLE
2
DIMSTYLE
5
A
100
AcDbSymbolTable
70
1
0
ENDTAB
0
TABLE
2
BLOCK_RECORD
5
1
100
AcDbSymbolTable
70
1
0
BLOCK_RECORD
5
1F
100
AcDbSymbolTableRecord
100
AcDbBlockTableRecord
2
*MODEL_SPACE
0
BLOCK_RECORD
5
1B
100
AcDbSymbolTableRecord
100
AcDbBlockTableRecord
2
*PAPER_SPACE
0
ENDTAB
0
ENDSEC
0
SECTION
2
BLOCKS
0
BLOCK
5
20
100
AcDbEntity
100
AcDbBlockBegin
2
*MODEL_SPACE
0
ENDBLK
5
21
100
AcDbEntity
100
AcDbBlockEnd
0
BLOCK
5
1C
100
AcDbEntity
100
AcDbBlockBegin
2
*PAPER_SPACE
0
ENDBLK
5
1D
100
AcDbEntity
100
AcDbBlockEnd
0
ENDSEC
0
SECTION
2
ENTITIES
0
LINE
5
100
100
AcDbEntity
8
0
100
AcDbLine
10
6.5781183048698111
20
-26.986644816710154
30
0
11
4.3716291634361726
21
-28.531645146519907
31
0
0
ARC
5
101
100
AcDbEntity
8
0
100
AcDbCircle
10
4.9452055997872275
20
-29.350797190808894
30
0
40
1.0000000000000011
210
0
220
0
230
1
100
AcDbArc
50
125.00000000000057
51
225.00000000000063
0
LINE
5
102
100
AcDbEntity
8
0
100
AcDbLine
10
4.2380988186006858
20
-30.057903971995451
30
0
11
8.409366876077085
21
-34.229172029471783
31
0
0
LINE
5
103
100
AcDbEntity
8
0
100
AcDbLine
10
8.409366876077085
20
-34.229172029471783
30
0
11
11.780816082398147
21
-30.85772282315094
31
0
0
ARC
5
104
100
AcDbEntity
8
0
100
AcDbCircle
10
10.967643284033617
20
-30.04455002478641
30
0
40
1.1500000000000001
210
-0
220
0
230
1
100
AcDbArc
50
-45
51
15.000000000004343
0
ARC
5
105
100
AcDbEntity
8
0
100
AcDbCircle
10
12.899494936611715
20
-29.526911934581221
30
0
40
0.85000000000000198
210
0
220
-0
230
1
100
AcDbArc
50
44.999999999999574
51
195.00000000000438
0
LINE
5
106
100
AcDbEntity
8
0
100
AcDbLine
10
13.500535700620286
20
-28.925871170572659
30
0
11
17.672465709621218
21
-33.09780117957375
31
0
0
LINE
5
107
100
AcDbEntity
8
0
100
AcDbLine
10
17.672465709621218
20
-33.09780117957375
30
0
11
23.187898602875613
21
-27.582368286318616
31
0
0
LINE
5
108
100
AcDbEntity
8
0
100
AcDbLine
10
23.187898602875613
20
-27.582368286318616
30
0
11
19.015968593874849
21
-23.410438277318129
31
0
0
ARC
5
109
100
AcDbEntity
8
0
100
AcDbCircle
10
19.617009357883415
20
-22.809397513309566
30
0
40
0.84999999999999676
210
0
220
-0
230
1
100
AcDbArc
50
74.999999999996291
51
224.99999999999983
0
ARC
5
110
100
AcDbEntity
8
0
100
AcDbCircle
10
20.134647448088579
20
-20.87754586073148
30
0
40
1.1499999999999855
210
0
220
0
230
1
100
AcDbArc
50
254.99999999999619
51
315.00000000000051
0
LINE
5
111
100
AcDbEntity
8
0
100
AcDbLine
10
20.947820246453105
20
-21.690718659095992
30
0
11
42.638538905549154
21
-1.1990408665951691e-13
31
0
0
LINE
5
112
100
AcDbEntity
8
0
100
AcDbLine
10
42.638538905549154
20
-1.1990408665951691e-13
30
0
11
20.947820246451599
21
21.690718659097254
31
0
0
ARC
5
113
100
AcDbEntity
8
0
100
AcDbCircle
10
20.134647448085872
20
20.877545860731523
30
0
40
1.150000000001699
210
0
220
-0
230
1
100
AcDbArc
50
45.000000000000121
51
104.99999999994493
0
ARC
5
114
100
AcDbEntity
8
0
100
AcDbCircle
10
19.617009357882683
20
22.809397513310159
30
0
40
0.84999999999831111
210
0
220
0
230
1
100
AcDbArc
50
134.99999999999764
51
284.99999999994509
0
LINE
5
115
100
AcDbEntity
8
0
100
AcDbLine
10
19.015968593875336
20
23.410438277317557
30
0
11
23.187898602875258
21
27.582368286318864
31
0
0
LINE
5
116
100
AcDbEntity
8
0
100
AcDbLine
10
23.187898602875258
20
27.582368286318864
30
0
11
17.672465709620568
21
33.097801179573537
31
0
0
LINE
5
117
100
AcDbEntity
8
0
100
AcDbLine
10
17.672465709620568
20
33.097801179573537
30
0
11
13.500535700620262
21
28.925871170572602
31
0
0
ARC
5
118
100
AcDbEntity
8
0
100
AcDbCircle
10
12.899494936611525
20
29.526911934581349
30
0
40
0.85000000000024678
210
0
220
0
230
1
100
AcDbArc
50
164.99999999999517
51
314.99999999999949
0
ARC
5
119
100
AcDbEntity
8
0
100
AcDbCircle
10
10.967643284033187
20
30.044550024786602
30
0
40
1.1500000000000017
210
-0
220
0
230
1
100
AcDbArc
50
-15.000000000003952
51
44.999999999999751
0
LINE
5
120
100
AcDbEntity
8
0
100
AcDbLine
10
11.78081608239772
20
30.857722823151128
30
0
11
8.4093668760773213
21
34.229172029471734
31
0
0
LINE
5
121
100
AcDbEntity
8
0
100
AcDbLine
10
8.4093668760773213
20
34.229172029471734
30
0
11
4.238098818601161
21
30.05790397199538
31
0
0
ARC
5
122
100
AcDbEntity
8
0
100
AcDbCircle
10
4.9452055997877249
20
29.350797190808848
30
0
40
1.0000000000000016
210
0
220
0
230
1
100
AcDbArc
50
135.00000000000131
51
234.99999999999648
0
LINE
5
123
100
AcDbEntity
8
0
100
AcDbLine
10
4.3716291634366291
20
28.531645146519892
30
0
11
6.5781183048700598
21
26.986644816710111
31
0
0
ARC
5
124
100
AcDbEntity
8
0
100
AcDbCircle
10
6.0045418685189587
20
26.167492772421159
30
0
40
0.99999999999999878
210
-0
220
0
230
1
100
AcDbArc
50
-45.000000000001677
51
54.999999999996106
0
LINE
5
125
100
AcDbEntity
8
0
100
AcDbLine
10
6.7116486497054844
20
25.460385991234592
30
0
11
4.4560619434844941
21
23.204799285013721
31
0
0
ARC
5
126
100
AcDbEntity
8
0
100
AcDbCircle
10
4.8096153340777565
20
22.851245894420437
30
0
40
0.49999999999999822
210
0
220
0
230
1
100
AcDbArc
50
134.99999999999827
51
225.00000000000014
0
LINE
5
127
100
AcDbEntity
8
0
100
AcDbLine
10
4.4560619434844853
20
22.497692503827164
30
0
11
6.2238289007806458
21
20.729925546530975
31
0
0
ARC
5
128
100
AcDbEntity
8
0
100
AcDbCircle
10
5.870275505892165
20
20.376372160302161
30
0
40
0.49999999995102873
210
0
220
0
230
1
100
AcDbArc
50
-134.99999879258411
51
44.999999116106068
0
LINE
5
129
100
AcDbEntity
8
0
100
AcDbLine
10
5.5167221227840857
20
20.02281876229295
30
0
11
0.51599691815233495
21
25.02354396692477
31
0
0
ARC
5
130
100
AcDbEntity
8
0
100
AcDbCircle
10
3.5000000000000253
20
21.655202296677594
30
0
40
4.5000000000000062
210
0
220
0
230
1
100
AcDbArc
50
131.53763007612935
51
164.61273515676373
0
ARC
5
131
100
AcDbEntity
8
0
100
AcDbCircle
10
-4.1297244941074727
20
13.406300074263493
30
0
40
10
210
0
220
0
230
1
100
AcDbArc
50
0
51
70.785661717442068
0
LINE
5
132
100
AcDbEntity
8
0
100
AcDbLine
10
5.8702755058925273
20
13.406300074263346
30
0
11
5.8702755058921312
21
-13.406300074263932
31
0
0
ARC
5
133
100
AcDbEntity
8
0
100
AcDbCircle
10
-4.1297244941078768
20
-13.40630007426377
30
0
40
10.000000000000007
210
0
220
0
230
1
100
AcDbArc
50
289.21433828256056
51
360
0
ARC
5
134
100
AcDbEntity
8
0
100
AcDbCircle
10
3.500000000000012
20
-21.655202296677651
30
0
40
4.4999999999999876
210
0
220
0
230
1
100
AcDbArc
50
195.38726484323732
51
228.46236992386889
0
LINE
5
135
100
AcDbEntity
8
0
100
AcDbLine
10
0.51599691815222726
20
-25.023543966924727
30
0
11
5.5167221153333816
21
-20.022818769743544
31
0
0
ARC
5
136
100
AcDbEntity
8
0
100
AcDbCircle
10
5.87027550589203
20
-20.376372160302196
30
0
40
0.4999999999510365
210
-0
220
0
230
1
100
AcDbArc
50
-45.000000000000156
51
134.99999999999972
0
LINE
5
137
100
AcDbEntity
8
0
100
AcDbLine
10
6.22382889645068
20
-20.729925550860848
30
0
11
4.4560619434843343
21
-22.497692503827199
31
0
0
ARC
5
138
100
AcDbEntity
8
0
100
AcDbCircle
10
4.8096153340776047
20
-22.851245894420472
30
0
40
0.49999999999999745
210
0
220
0
230
1
100
AcDbArc
50
134.9999999999998
51
225.00000000000173
0
LINE
5
139
100
AcDbEntity
8
0
100
AcDbLine
10
4.4560619434843423
20
-23.204799285013756
30
0
11
6.7116486497052854
21
-25.460385991234613
31
0
0
ARC
5
140
100
AcDbEntity
8
0
100
AcDbCircle
10
6.0045418685187535
20
-26.167492772421173
30
0
40
0.99999999999999867
210
0
220
0
230
1
100
AcDbArc
50
-54.999999999999069
51
45.000000000001151
0
ENDSEC
0
SECTION
2
OBJECTS
0
DICTIONARY
5
C
100
AcDbDictionary
3
ACAD_GROUP
350
D
3
ACAD_MLINESTYLE
350
17
0
DICTIONARY
5
D
100
AcDbDictionary
0
DICTIONARY
5
1A
330
C
100
AcDbDictionary
0
DICTIONARY
5
17
100
AcDbDictionary
0
ENDSEC
0
EOF
