0
SECTION
2
HEADER
9
$INSUNITS
70
4
9
$ACADVER
1
AC1014
9
$HANDSEED
5
FFFF
0
ENDSEC
0
SECTION
2
TABLES
0
TABLE
2
VPORT
5
8
100
AcDbSymbolTable
0
ENDTAB
0
TABLE
2
LTYPE
5
5
100
AcDbSymbolTable
0
LTYPE
5
14
100
AcDbSymbolTableRecord
100
AcDbLinetypeTableRecord
2
BYBLOCK
70
0
0
LTYPE
5
15
100
AcDbSymbolTableRecord
100
AcDbLinetypeTableRecord
2
BYLAYER
70
0
0
ENDTAB
0
TABLE
2
LAYER
5
2
100
AcDbSymbolTable
70
2
0
LAYER
5
50
100
AcDbSymbolTableRecord
100
AcDbLayerTableRecord
2
0
70
0
6
CONTINUOUS
0
ENDTAB
0
TABLE
2
STYLE
5
3
100
AcDbSymbolTable
70
1
0
STYLE
5
11
100
AcDbSymbolTableRecord
100
AcDbTextStyleTableRecord
2
STANDARD
70
0
0
ENDTAB
0
TABLE
2
VIEW
5
6
100
AcDbSymbolTable
70
0
0
ENDTAB
0
TABLE
2
UCS
5
7
100
AcDbSymbolTable
70
0
0
ENDTAB
0
TABLE
2
APPID
5
9
100
AcDbSymbolTable
70
2
0
APPID
5
12
100
AcDbSymbolTableRecord
100
AcDbRegAppTableRecord
2
ACAD
70
0
0
ENDTAB
0
TABLE
2
DIMSTYLE
5
A
100
AcDbSymbolTable
70
1
0
ENDTAB
0
TABLE
2
BLOCK_RECORD
5
1
100
AcDbSymbolTable
70
1
0
BLOCK_RECORD
5
1F
100
AcDbSymbolTableRecord
100
AcDbBlockTableRecord
2
*MODEL_SPACE
0
BLOCK_RECORD
5
1B
100
AcDbSymbolTableRecord
100
AcDbBlockTableRecord
2
*PAPER_SPACE
0
ENDTAB
0
ENDSEC
0
SECTION
2
BLOCKS
0
BLOCK
5
20
100
AcDbEntity
100
AcDbBlockBegin
2
*MODEL_SPACE
0
ENDBLK
5
21
100
AcDbEntity
100
AcDbBlockEnd
0
BLOCK
5
1C
100
AcDbEntity
100
AcDbBlockBegin
2
*PAPER_SPACE
0
ENDBLK
5
1D
100
AcDbEntity
100
AcDbBlockEnd
0
ENDSEC
0
SECTION
2
ENTITIES
0
LWPOLYLINE
5
100
100
AcDbEntity
8
0
100
AcDbPolyline
90
8
70
1
43
0.0
10
236.65998662080509
20
365.79353907987172
10
236.65974637192437
20
356.99353908315118
42
2.4142135623733374
10
237.15973272123347
20
356.49352543283294
10
242.85973271910922
20
356.49336981708069
42
2.4142135623730949
10
243.35974636942748
20
356.99335616638973
10
243.35998661830817
20
365.79335616311022
42
2.4142135623729732
10
242.8600002689991
20
366.29336981342846
10
237.16000027112332
20
366.2935254291807
42
2.4142135623732162
0
CIRCLE
5
101
100
AcDbEntity
8
0
100
AcDbCircle
10
240.00945697997875
20
346.39344762872076
30
-1.1102230246251565e-15
40
1.6000000000000012
210
0
220
-0
230
1
0
CIRCLE
5
102
100
AcDbEntity
8
0
100
AcDbCircle
10
240.01032515207029
20
378.19344761686983
30
-1.1102230246251565e-15
40
1.6000000000000012
210
0
220
-0
230
1
0
LWPOLYLINE
5
103
100
AcDbEntity
8
0
100
AcDbPolyline
90
8
70
1
43
0.0
10
116.65998666552579
20
365.79681520097199
10
116.65974641664511
20
356.99681520425145
42
2.4142135623732766
10
117.15973276595419
20
356.49680155393321
10
122.85973276382997
20
356.49664593818096
42
2.4142135623730341
10
123.35974641414822
20
356.99663228749
10
123.35998666302891
20
365.79663228421049
42
2.4142135623729128
10
122.86000031371981
20
366.29664593452873
10
117.16000031584403
20
366.29680155028097
42
2.4142135623731553
0
CIRCLE
5
104
100
AcDbEntity
8
0
100
AcDbCircle
10
120.00945702469947
20
346.39672374982104
30
-1.1102230246251565e-15
40
1.6000000000000012
210
0
220
-0
230
1
0
CIRCLE
5
105
100
AcDbEntity
8
0
100
AcDbCircle
10
120.01032519679103
20
378.1967237379701
30
-1.1102230246251565e-15
40
1.6000000000000012
210
0
220
-0
230
1
0
LWPOLYLINE
5
106
100
AcDbEntity
8
0
100
AcDbPolyline
90
8
70
1
43
0.0
10
-3.3400132897534918
20
365.80009132207215
10
-3.3402535386341747
20
357.00009132535166
42
2.4142135623729399
10
-2.8402671893250888
20
356.50007767503337
10
2.8597328085506888
20
356.49992205928118
42
2.4142135623731615
10
3.3597464588689352
20
356.99990840859022
10
3.3599867077496182
20
365.7999084053107
42
2.4142135623733041
10
2.8600003584405318
20
366.29992205562894
10
-2.8399996394352458
20
366.30007767138119
42
2.4142135623730403
0
CIRCLE
5
107
100
AcDbEntity
8
0
100
AcDbCircle
10
0.0094570694201935833
20
346.39999987092125
30
-1.1102230246251565e-15
40
1.6000000000000012
210
0
220
-0
230
1
0
CIRCLE
5
108
100
AcDbEntity
8
0
100
AcDbCircle
10
0.010325241511752983
20
378.19999985907032
30
-1.1102230246251565e-15
40
1.6000000000000012
210
0
220
-0
230
1
0
LWPOLYLINE
5
109
100
AcDbEntity
8
0
100
AcDbPolyline
90
8
70
1
43
0.0
10
-123.34001324503278
20
365.80336744317236
10
-123.34025349391347
20
357.00336744645188
42
2.4142135623732766
10
-122.84026714460437
20
356.50335379613358
10
-117.1402671467286
20
356.50319818038133
42
2.4142135623729732
10
-116.64025349641035
20
357.00318452969043
10
-116.64001324752967
20
365.80318452641086
42
2.4142135623729128
10
-117.13999959683875
20
366.3031981767291
10
-122.83999959471453
20
366.3033537924814
42
2.4142135623730949
0
CIRCLE
5
110
100
AcDbEntity
8
0
100
AcDbCircle
10
-119.99054288585909
20
346.40327599202146
30
-1.1102230246251565e-15
40
1.6000000000000012
210
0
220
-0
230
1
0
CIRCLE
5
111
100
AcDbEntity
8
0
100
AcDbCircle
10
-119.98967471376751
20
378.20327598017053
30
-1.1102230246251565e-15
40
1.6000000000000012
210
0
220
-0
230
1
0
LWPOLYLINE
5
112
100
AcDbEntity
8
0
100
AcDbPolyline
90
8
70
1
43
0.0
10
129.7340791880861
20
343.15023626216032
10
130.84264732430449
20
345.05051957981613
42
2.414213562373051
10
130.66271205579596
20
345.73434945569664
10
127.20765147823981
20
347.74992788518466
42
2.4142135623730203
10
126.52382160235928
20
347.56999261667607
10
125.41525346614102
20
345.66970929902027
42
2.4142135623728764
10
125.59518873464955
20
344.98587942313969
10
129.05024931220561
20
342.97030099365168
42
2.4142135623732996
0
LWPOLYLINE
5
113
100
AcDbEntity
8
0
100
AcDbPolyline
90
8
70
1
43
0.0
10
151.10988427390294
20
362.04587468260354
42
-2.4142135623729128
10
151.60987062321192
20
361.5458610322853
10
151.60969862685417
20
355.24586103463315
42
-2.4142135623731553
10
151.1096849765359
20
354.74587468532405
10
148.90968497735588
20
354.7459347475442
42
-2.4142135623732766
10
148.4096986280467
20
355.24594839786243
10
148.40987062440445
20
361.54594839551464
42
-2.4142135623729732
10
148.90988427472271
20
362.04593474482374
0
CIRCLE
5
114
100
AcDbEntity
8
0
100
AcDbCircle
10
210.01021732426426
20
374.24426664861693
30
-1.1102230246251565e-15
40
1.6000000000000012
210
0
220
-0
230
1
0
LWPOLYLINE
5
115
100
AcDbEntity
8
0
100
AcDbPolyline
90
8
70
1
43
0.0
10
232.81133642484573
20
347.74704479801267
10
229.35616579778963
20
345.73165502481015
42
2.4142135623734524
10
229.17619319105796
20
345.04783497477786
10
230.28465756631928
20
343.14749112989705
42
2.4142135623734085
10
230.96847761635155
20
342.96751852316538
10
234.42364824340746
20
344.98290829636778
42
2.4142135623734706
10
234.60362085013915
20
345.66672834640002
10
233.49515647487803
20
347.56707219128089
42
2.4142135623728853
0
CIRCLE
5
116
100
AcDbEntity
8
0
100
AcDbCircle
10
150.01021734662464
20
374.24590470916706
30
-1.1102230246251565e-15
40
1.6000000000000012
210
0
220
-0
230
1
0
LWPOLYLINE
5
117
100
AcDbEntity
8
0
100
AcDbPolyline
90
8
70
1
43
0.0
10
211.60969860449381
20
355.24422297408307
10
211.60987060085159
20
361.54422297173528
42
2.4142135623733374
10
211.10988425154247
20
362.04423662205352
10
208.90988425236236
20
362.04429668427366
42
2.4142135623730949
10
208.40987060204412
20
361.54431033496462
10
208.40969860568634
20
355.24431033731241
42
2.4142135623729732
10
208.90968495499547
20
354.74429668699418
10
211.10968495417555
20
354.74423662477398
42
2.4142135623730949
0
LWPOLYLINE
5
118
100
AcDbEntity
8
0
100
AcDbPolyline
90
8
70
1
43
0.0
10
176.75982556717412
20
359.89517441251968
10
183.25982556475171
20
359.8949969559601
42
2.4142135623732162
10
183.75983921506997
20
360.39498330526925
10
183.75989927729012
20
362.59498330444927
42
2.4142135623733374
10
183.25991292798102
20
363.09499695476751
10
176.7599129304034
20
363.09517441132709
42
2.4142135623730949
10
176.25989928008516
20
362.59518806201805
10
176.25983921786499
20
360.39518806283797
42
2.4142135623733374
0
LWPOLYLINE
5
119
100
AcDbEntity
8
0
100
AcDbPolyline
90
8
70
1
43
0.0
10
9.7340792328068311
20
343.15351238326053
10
10.842647369025208
20
345.05379570091634
42
2.414213562373122
10
10.662712100516686
20
345.73762557679686
10
7.2076515229605054
20
347.75320400628488
42
2.4142135623729706
10
6.5238216470799903
20
347.57326873777635
10
5.415253510861743
20
345.67298542012054
42
2.4142135623726793
10
5.5951887793702806
20
344.98915554423991
10
9.0502493569263187
20
342.97357711475195
42
2.4142135623730994
0
LWPOLYLINE
5
120
100
AcDbEntity
8
0
100
AcDbPolyline
90
8
70
1
43
0.0
10
31.109884318623653
20
362.04915080370381
42
-2.4142135623729279
10
31.609870667932643
20
361.54913715338557
10
31.609698671574883
20
355.24913715573342
42
-2.4142135623731704
10
31.109685021256634
20
354.74915080642432
10
28.909685022076594
20
354.74921086864447
42
-2.4142135623733072
10
28.409698672767433
20
355.24922451896271
10
28.409870669125191
20
361.54922451661491
42
-2.414213562373019
10
28.909884319443439
20
362.04921086592401
0
CIRCLE
5
121
100
AcDbEntity
8
0
100
AcDbCircle
10
90.010217368984996
20
374.2475427697172
30
-1.1102230246251565e-15
40
1.6000000000000012
210
0
220
-0
230
1
0
LWPOLYLINE
5
122
100
AcDbEntity
8
0
100
AcDbPolyline
90
8
70
1
43
0.0
10
112.81133646956644
20
347.75032091911294
10
109.35616584251035
20
345.73493114591042
42
2.4142135623729204
10
109.17619323577864
20
345.05111109587807
10
110.28465761103996
20
343.15076725099721
42
2.4142135623732734
10
110.96847766107228
20
342.9707946442656
10
114.42364828812821
20
344.986184417468
42
2.4142135623730736
10
114.60362089485994
20
345.67000446750029
10
113.49515651959871
20
347.57034831238116
42
2.4142135623729368
0
CIRCLE
5
123
100
AcDbEntity
8
0
100
AcDbCircle
10
30.010217391345357
20
374.24918083026728
30
-1.1102230246251565e-15
40
1.6000000000000012
210
0
220
-0
230
1
0
LWPOLYLINE
5
124
100
AcDbEntity
8
0
100
AcDbPolyline
90
8
70
1
43
0.0
10
91.609698649214522
20
355.24749909518329
10
91.609870645572272
20
361.54749909283544
42
2.4142135623729128
10
91.109884296263189
20
362.04751274315367
10
88.909884297083082
20
362.04757280537387
42
2.4142135623730341
10
88.40987064676483
20
361.54758645606483
10
88.409698650407066
20
355.24758645841257
42
2.4142135623732766
10
88.909684999716148
20
354.74757280809433
10
91.109684998896256
20
354.74751274587419
42
2.4142135623731553
0
LWPOLYLINE
5
125
100
AcDbEntity
8
0
100
AcDbPolyline
90
8
70
1
43
0.0
10
56.759825611894797
20
359.89845053361989
10
63.259825609472415
20
359.89827307706031
42
2.4142135623730341
10
63.759839259790667
20
360.39825942636946
10
63.759899322010838
20
362.59825942554949
42
2.414213562372943
10
63.259912972701756
20
363.09827307586772
10
56.759912975124124
20
363.09845053242731
42
2.4142135623730341
10
56.259899324805886
20
362.59846418311827
10
56.259839262585707
20
360.39846418393813
42
2.414213562372943
0
LWPOLYLINE
5
126
100
AcDbEntity
8
0
100
AcDbPolyline
90
8
70
1
43
0.0
10
-110.26592072247246
20
343.15678850436075
10
-109.15735258625406
20
345.05707182201655
42
2.4142135623730461
10
-109.33728785476261
20
345.74090169789713
10
-112.79234843231876
20
347.75648012738509
42
2.4142135623729719
10
-113.47617830819928
20
347.57654485887656
10
-114.58474644441753
20
345.67626154122075
42
2.4142135623729022
10
-114.40481117590899
20
344.99243166534018
10
-110.94975059835294
20
342.9768532358521
42
2.414213562373178
0
LWPOLYLINE
5
127
100
AcDbEntity
8
0
100
AcDbPolyline
90
8
70
1
43
0.0
10
-88.890115636655821
20
362.05242692480402
42
-2.4142135623732766
10
-88.390129287346639
20
361.55241327448579
10
-88.390301283704403
20
355.25241327683364
42
-2.4142135623729732
10
-88.890314934022655
20
354.75242692752454
10
-91.090314933202862
20
354.75248698974468
42
-2.4142135623729128
10
-91.590301282511859
20
355.25250064006292
10
-91.590129286154095
20
361.55250063771513
42
-2.4142135623730949
10
-91.090115635835843
20
362.05248698702417
0
CIRCLE
5
128
100
AcDbEntity
8
0
100
AcDbCircle
10
-29.989782586294282
20
374.25081889081741
30
-1.1102230246251565e-15
40
1.6000000000000012
210
0
220
-0
230
1
0
LWPOLYLINE
5
129
100
AcDbEntity
8
0
100
AcDbPolyline
90
8
70
1
43
0.0
10
-7.1886634857128415
20
347.75359704021309
10
-10.643834112768932
20
345.73820726701064
42
2.4142135623729857
10
-10.823806719500642
20
345.05438721697828
10
-9.7153423442393034
20
343.15404337209742
42
2.4142135623733192
10
-9.031522294207015
20
342.97407076536581
10
-5.5763516671510729
20
344.98946053856827
42
2.4142135623731917
10
-5.3963790604193402
20
345.67328058860051
10
-6.5048434356805673
20
347.57362443348137
42
2.4142135623729355
0
CIRCLE
5
130
100
AcDbEntity
8
0
100
AcDbCircle
10
-89.989782563933915
20
374.25245695136755
30
-1.1102230246251565e-15
40
1.6000000000000012
210
0
220
-0
230
1
0
LWPOLYLINE
5
131
100
AcDbEntity
8
0
100
AcDbPolyline
90
8
70
1
43
0.0
10
-28.39030130606476
20
355.2507752162835
10
-28.390129309707
20
361.55077521393565
42
2.4142135623733072
10
-28.890115659016086
20
362.05078886425389
10
-31.090115658196204
20
362.05084892647403
42
2.4142135623731704
10
-31.590129308514449
20
361.55086257716505
10
-31.590301304872209
20
355.25086257951278
42
2.4142135623729279
10
-31.090314955563123
20
354.75084892919455
10
-28.890314956383008
20
354.7507888669744
42
2.414213562373019
0
LWPOLYLINE
5
132
100
AcDbEntity
8
0
100
AcDbPolyline
90
8
70
1
43
0.0
10
-63.240174343384481
20
359.90172665472011
10
-56.740174345806871
20
359.90154919816052
42
2.4142135623731553
10
-56.240160695488612
20
360.40153554746962
10
-56.240100633268433
20
362.60153554664964
42
2.4142135623733072
10
-56.740086982577523
20
363.10154919696794
10
-63.240086980155148
20
363.10172665352752
42
2.4142135623731553
10
-63.740100630473393
20
362.60174030421842
10
-63.740160692693564
20
360.40174030503835
42
2.4142135623733072
0
LWPOLYLINE
5
133
100
AcDbEntity
8
0
100
AcDbPolyline
90
8
70
1
43
0.0
10
-243.34001320031203
20
365.80664356427263
10
-243.34025344919272
20
357.00664356755215
42
2.4142135623733374
10
-242.84026709988365
20
356.50662991723385
10
-237.14026710200787
20
356.5064743014816
42
2.4142135623730949
10
-236.64025345168963
20
357.0064606507907
10
-236.64001320280892
20
365.80646064751113
42
2.4142135623729732
10
-237.13999955211801
20
366.30647429782937
10
-242.83999954999376
20
366.30662991358167
42
2.4142135623732162
0
CIRCLE
5
134
100
AcDbEntity
8
0
100
AcDbCircle
10
-239.99054284113836
20
346.40655211312173
30
-1.1102230246251565e-15
40
1.6000000000000012
210
0
220
-0
230
1
0
CIRCLE
5
135
100
AcDbEntity
8
0
100
AcDbCircle
10
-239.98967466904679
20
378.2065521012708
30
-1.1102230246251565e-15
40
1.6000000000000012
210
0
220
-0
230
1
0
LWPOLYLINE
5
136
100
AcDbEntity
8
0
100
AcDbPolyline
90
8
70
1
43
0.0
10
-230.26592067775172
20
343.16006462546102
10
-229.15735254153336
20
345.06034794311682
42
2.4142135623731131
10
-229.33728781004191
20
345.74417781899734
10
-232.79234838759805
20
347.75975624848536
42
2.414213562373051
10
-233.47617826347857
20
347.57982097997677
10
-234.5847463996968
20
345.67953766232097
42
2.4142135623728249
10
-234.40481113118824
20
344.99570778644033
10
-230.94975055363224
20
342.98012935695232
42
2.4142135623732162
0
LWPOLYLINE
5
137
100
AcDbEntity
8
0
100
AcDbPolyline
90
8
70
1
43
0.0
10
-208.89011559193489
20
362.05570304590424
42
-2.4142135623729732
10
-208.3901292426259
20
361.555689395586
10
-208.39030123898368
20
355.25568939793379
42
-2.4142135623730949
10
-208.89031488930192
20
354.7557030486247
10
-211.09031488848217
20
354.75576311084495
42
-2.4142135623727308
10
-211.59030123779115
20
355.25577676116319
10
-211.59012924143337
20
361.55577675881534
42
-2.4142135623732162
10
-211.09011559111511
20
362.05576310812444
0
CIRCLE
5
138
100
AcDbEntity
8
0
100
AcDbCircle
10
-149.98978254157356
20
374.25409501191757
30
-1.1102230246251565e-15
40
1.6000000000000012
210
0
220
-0
230
1
0
LWPOLYLINE
5
139
100
AcDbEntity
8
0
100
AcDbPolyline
90
8
70
1
43
0.0
10
-127.18866344099213
20
347.75687316131337
10
-130.64383406804822
20
345.74148338811091
42
2.4142135623728325
10
-130.82380667477995
20
345.05766333807856
10
-129.7153422995186
20
343.15731949319769
42
2.4142135623733041
10
-129.0315222494863
20
342.97734688646608
10
-125.57635162243037
20
344.99273665966848
42
2.4142135623730203
10
-125.39637901569861
20
345.67655670970078
10
-126.50484339095985
20
347.57690055458158
42
2.4142135623727277
0
CIRCLE
5
140
100
AcDbEntity
8
0
100
AcDbCircle
10
-209.98978251921318
20
374.25573307246771
30
-1.1102230246251565e-15
40
1.6000000000000012
210
0
220
-0
230
1
0
LWPOLYLINE
5
141
100
AcDbEntity
8
0
100
AcDbPolyline
90
8
70
1
43
0.0
10
-148.39030126134404
20
355.25405133738377
10
-148.39012926498629
20
361.55405133503592
42
2.4142135623732766
10
-148.89011561429535
20
362.05406498535416
10
-151.09011561347549
20
362.0541250475743
42
2.4142135623730949
10
-151.59012926379373
20
361.55413869826532
10
-151.59030126015151
20
355.25413870061305
42
2.4142135623729128
10
-151.09031491084241
20
354.75412505029482
10
-148.8903149116623
20
354.75406498807467
42
2.4142135623730341
0
LWPOLYLINE
5
142
100
AcDbEntity
8
0
100
AcDbPolyline
90
8
70
1
43
0.0
10
-183.24017429866373
20
359.90500277582038
10
-176.74017430108614
20
359.90482531926079
42
2.4142135623730949
10
-176.24016065076788
20
360.40481166856989
10
-176.2401005885477
20
362.60481166774991
42
2.4142135623733374
10
-176.74008693785683
20
363.10482531806821
10
-183.24008693543445
20
363.10500277462779
42
2.4142135623732162
10
-183.74010058575269
20
362.60501642531869
10
-183.74016064797286
20
360.40501642613862
42
2.4142135623733374
0
LWPOLYLINE
5
143
100
AcDbEntity
8
0
100
AcDbPolyline
90
4
70
1
43
0.0
10
280.00900240326922
20
329.74235559521367
10
-279.99099738803409
20
329.75764416034804
10
-279.98930472546567
20
391.75764413646897
10
280.01069506583764
20
391.74235557133454
0
ENDSEC
0
SECTION
2
OBJECTS
0
DICTIONARY
5
C
100
AcDbDictionary
3
ACAD_GROUP
350
D
3
ACAD_MLINESTYLE
350
17
0
DICTIONARY
5
D
100
AcDbDictionary
0
DICTIONARY
5
1A
330
C
100
AcDbDictionary
0
DICTIONARY
5
17
100
AcDbDictionary
0
ENDSEC
0
EOF
