0
SECTION
2
HEADER
9
$INSUNITS
70
4
9
$ACADVER
1
AC1014
9
$HANDSEED
5
FFFF
0
ENDSEC
0
SECTION
2
TABLES
0
TABLE
2
VPORT
5
8
100
AcDbSymbolTable
0
ENDTAB
0
TABLE
2
LTYPE
5
5
100
AcDbSymbolTable
0
LTYPE
5
14
100
AcDbSymbolTableRecord
100
AcDbLinetypeTableRecord
2
BYBLOCK
70
0
0
LTYPE
5
15
100
AcDbSymbolTableRecord
100
AcDbLinetypeTableRecord
2
BYLAYER
70
0
0
ENDTAB
0
TABLE
2
LAYER
5
2
100
AcDbSymbolTable
70
2
0
LAYER
5
50
100
AcDbSymbolTableRecord
100
AcDbLayerTableRecord
2
0
70
0
6
CONTINUOUS
0
ENDTAB
0
TABLE
2
STYLE
5
3
100
AcDbSymbolTable
70
1
0
STYLE
5
11
100
AcDbSymbolTableRecord
100
AcDbTextStyleTableRecord
2
STANDARD
70
0
0
ENDTAB
0
TABLE
2
VIEW
5
6
100
AcDbSymbolTable
70
0
0
ENDTAB
0
TABLE
2
UCS
5
7
100
AcDbSymbolTable
70
0
0
ENDTAB
0
TABLE
2
APPID
5
9
100
AcDbSymbolTable
70
2
0
APPID
5
12
100
AcDbSymbolTableRecord
100
AcDbRegAppTableRecord
2
ACAD
70
0
0
ENDTAB
0
TABLE
2
DIMSTYLE
5
A
100
AcDbSymbolTable
70
1
0
ENDTAB
0
TABLE
2
BLOCK_RECORD
5
1
100
AcDbSymbolTable
70
1
0
BLOCK_RECORD
5
1F
100
AcDbSymbolTableRecord
100
AcDbBlockTableRecord
2
*MODEL_SPACE
0
BLOCK_RECORD
5
1B
100
AcDbSymbolTableRecord
100
AcDbBlockTableRecord
2
*PAPER_SPACE
0
ENDTAB
0
ENDSEC
0
SECTION
2
BLOCKS
0
BLOCK
5
20
100
AcDbEntity
100
AcDbBlockBegin
2
*MODEL_SPACE
0
ENDBLK
5
21
100
AcDbEntity
100
AcDbBlockEnd
0
BLOCK
5
1C
100
AcDbEntity
100
AcDbBlockBegin
2
*PAPER_SPACE
0
ENDBLK
5
1D
100
AcDbEntity
100
AcDbBlockEnd
0
ENDSEC
0
SECTION
2
ENTITIES
0
LWPOLYLINE
5
100
100
AcDbEntity
8
0
100
AcDbPolyline
90
16
70
1
43
0.0
10
145.50000000015555
20
-1.5499999999984544
42
-0.4142135623731098
10
146.50000000015558
20
-0.54999999999844862
10
160.50000000015345
20
-0.54999999999856175
42
0.99999999999999989
10
160.50000000015345
20
1.4500000000015614
10
146.50000000015552
20
1.4500000000016979
42
-0.41421356237310114
10
145.50000000015555
20
2.450000000001662
10
145.50000000015444
20
84.700000000000017
10
285.50000000015439
20
84.699999999999903
10
285.50000000015439
20
2.4500000000027478
42
-0.41421356237309537
10
284.50000000015439
20
1.4500000000027715
10
270.50000000015496
20
1.4500000000026461
42
0.99999999999999989
10
270.50000000015496
20
-0.54999999999724392
10
284.50000000015439
20
-0.54999999999721494
42
-0.41421356237307033
10
285.50000000015433
20
-1.5499999999971448
10
285.50000000015433
20
-15.549999999998573
10
145.50000000015575
20
-15.549999999998379
0
LWPOLYLINE
5
101
100
AcDbEntity
8
0
100
AcDbPolyline
90
6
70
1
43
0.0
10
189.55036710077846
20
16.088672248889896
10
210.61276051233585
20
32.738785617709894
42
0.48420657524785471
10
210.61276051233585
20
36.661214382289899
10
189.55036710077852
20
53.311327751109957
42
0.62685418254770553
10
185.50000000015402
20
51.350113368819962
10
185.50000000015393
20
18.049886631179916
42
0.62685418254770697
0
LWPOLYLINE
5
102
100
AcDbEntity
8
0
100
AcDbPolyline
90
6
70
1
43
0.0
10
244.69963289952958
20
53.311327751109815
10
223.63723948797227
20
36.661214382289884
42
0.48420657524786481
10
223.63723948797229
20
32.738785617709887
10
244.69963289952958
20
16.088672248889843
42
0.62685418254770664
10
248.75000000015407
20
18.049886631179834
10
248.75000000015407
20
51.350113368819812
42
0.62685418254770675
0
LWPOLYLINE
5
103
100
AcDbEntity
8
0
100
AcDbPolyline
90
6
70
1
43
0.0
10
196.72510658859576
20
9.69999999999912
10
237.52489341171156
20
9.6999999999996529
42
0.71114343861912166
10
239.07526051233603
20
14.161214382289666
10
218.67536710077854
20
30.287612336090092
42
0.34752131768854355
10
215.57463289952952
20
30.287612336090113
10
195.17473948797121
20
14.161214382289145
42
0.71114343861913332
0
CIRCLE
5
104
100
AcDbEntity
8
0
100
AcDbCircle
10
280.00000000015581
20
14.700000000001216
30
0
40
2.8500000000000014
210
8.7157639921052461e-33
220
-3.4211388289180104e-48
230
1
0
CIRCLE
5
105
100
AcDbEntity
8
0
100
AcDbCircle
10
280.00000000015501
20
-7.8499999999978005
30
0
40
2.8500000000000014
210
8.7157639921052461e-33
220
-3.4211388289180104e-48
230
1
0
CIRCLE
5
106
100
AcDbEntity
8
0
100
AcDbCircle
10
151.00000000015245
20
14.700000000000061
30
0
40
2.8500000000000014
210
8.7157639921052461e-33
220
-3.4211388289180104e-48
230
1
0
CIRCLE
5
107
100
AcDbEntity
8
0
100
AcDbCircle
10
151.00000000015305
20
-7.8499999999999321
30
0
40
2.8500000000000014
210
8.7157639921052461e-33
220
-3.4211388289180104e-48
230
1
0
CIRCLE
5
108
100
AcDbEntity
8
0
100
AcDbCircle
10
262.12500000015399
20
34.699999999999783
30
0
40
1.6000000000000014
210
4.3578819960526203e-33
220
-4.3578819960526244e-33
230
1
0
LWPOLYLINE
5
109
100
AcDbEntity
8
0
100
AcDbPolyline
90
8
70
1
43
0.0
10
265.00000000015393
20
19.699999999999743
42
-2.4142135623731251
10
265.50000000015393
20
19.199999999999747
10
265.50000000015382
20
10.199999999999743
42
-2.4142135623732282
10
265.00000000015382
20
9.6999999999997382
10
259.25000000015382
20
9.6999999999997346
42
-2.4142135623728671
10
258.75000000015382
20
10.199999999999793
10
258.75000000015393
20
19.199999999999847
42
-2.4142135623729279
10
259.25000000015393
20
19.699999999999832
0
CIRCLE
5
110
100
AcDbEntity
8
0
100
AcDbCircle
10
172.12500000015405
20
34.700000000000017
30
0
40
1.6000000000000014
210
4.3578819960526203e-33
220
-4.3578819960526244e-33
230
1
0
LWPOLYLINE
5
111
100
AcDbEntity
8
0
100
AcDbPolyline
90
8
70
1
43
0.0
10
265.50000000015405
20
50.199999999999754
42
-2.4142135623731251
10
265.00000000015405
20
49.699999999999761
10
259.25000000015405
20
49.699999999999775
42
-2.4142135623730643
10
258.75000000015405
20
50.199999999999775
10
258.7500000001541
20
59.199999999999775
42
-2.4142135623730949
10
259.2500000001541
20
59.699999999999783
10
265.00000000015405
20
59.699999999999775
42
-2.4142135623731251
10
265.50000000015405
20
59.199999999999775
0
LWPOLYLINE
5
112
100
AcDbEntity
8
0
100
AcDbPolyline
90
8
70
1
43
0.0
10
175.00000000015407
20
19.700000000000035
42
-2.414213562373178
10
175.50000000015405
20
19.200000000000021
10
175.5000000001541
20
10.200000000000035
42
-2.4142135623730767
10
175.00000000015407
20
9.7000000000000242
10
169.25000000015405
20
9.7000000000000259
42
-2.4142135623731931
10
168.75000000015407
20
10.200000000000033
10
168.75000000015407
20
19.200000000000067
42
-2.4142135623731327
10
169.25000000015405
20
19.700000000000028
0
LWPOLYLINE
5
113
100
AcDbEntity
8
0
100
AcDbPolyline
90
8
70
1
43
0.0
10
169.25000000015402
20
49.700000000000031
42
-2.4142135623730341
10
168.75000000015405
20
50.200000000000031
10
168.7500000001541
20
59.20000000000001
42
-2.4142135623729128
10
169.25000000015413
20
59.700000000000031
10
175.0000000001541
20
59.700000000000003
42
-2.4142135623730643
10
175.5000000001541
20
59.200000000000017
10
175.50000000015405
20
50.200000000000003
42
-2.4142135623731251
10
175.00000000015405
20
49.700000000000003
0
LWPOLYLINE
5
114
100
AcDbEntity
8
0
100
AcDbPolyline
90
6
70
1
43
0.0
10
237.52489341171133
20
59.699999999999818
10
196.72510658859676
20
59.699999999999946
42
0.71114343861912699
10
195.17473948797226
20
55.238785617709951
10
215.57463289952952
20
39.112387663909658
42
0.34752131768854699
10
218.67536710077857
20
39.112387663909658
10
239.07526051233586
20
55.238785617709837
42
0.71114343861912777
0
LWPOLYLINE
5
115
100
AcDbEntity
8
0
100
AcDbPolyline
90
8
70
1
43
0.0
10
270.50000000015496
20
-12.549999999997205
10
273.5000000001553
20
-12.549999999997221
42
0.4142135623731048
10
274.5000000001553
20
-11.549999999997208
10
274.50000000015524
20
-4.5499999999972127
42
0.41421356237311052
10
273.50000000015518
20
-3.5499999999972145
10
270.50000000015496
20
-3.5499999999973908
42
0.41421356237308693
10
269.50000000015496
20
-4.5499999999973983
10
269.50000000015496
20
-11.549999999997207
42
0.4142135623730846
0
LWPOLYLINE
5
116
100
AcDbEntity
8
0
100
AcDbPolyline
90
8
70
1
43
0.0
10
161.50000000015359
20
-11.549999999998487
10
161.50000000015353
20
-4.5499999999984206
42
0.41421356237307944
10
160.50000000015356
20
-3.54999999999841
10
157.50000000015493
20
-3.5499999999983856
42
0.41421356237309243
10
156.50000000015493
20
-4.5499999999983585
10
156.50000000015473
20
-11.549999999998466
42
0.41421356237310086
10
157.50000000015473
20
-12.549999999998455
10
160.50000000015359
20
-12.549999999998505
42
0.41421356237309959
0
ENDSEC
0
SECTION
2
OBJECTS
0
DICTIONARY
5
C
100
AcDbDictionary
3
ACAD_GROUP
350
D
3
ACAD_MLINESTYLE
350
17
0
DICTIONARY
5
D
100
AcDbDictionary
0
DICTIONARY
5
1A
330
C
100
AcDbDictionary
0
DICTIONARY
5
17
100
AcDbDictionary
0
ENDSEC
0
EOF
