0
SECTION
2
HEADER
9
$INSUNITS
70
4
9
$ACADVER
1
AC1014
9
$HANDSEED
5
FFFF
0
ENDSEC
0
SECTION
2
TABLES
0
TABLE
2
VPORT
5
8
100
AcDbSymbolTable
0
ENDTAB
0
TABLE
2
LTYPE
5
5
100
AcDbSymbolTable
0
LTYPE
5
14
100
AcDbSymbolTableRecord
100
AcDbLinetypeTableRecord
2
BYBLOCK
70
0
0
LTYPE
5
15
100
AcDbSymbolTableRecord
100
AcDbLinetypeTableRecord
2
BYLAYER
70
0
0
ENDTAB
0
TABLE
2
LAYER
5
2
100
AcDbSymbolTable
70
2
0
LAYER
5
50
100
AcDbSymbolTableRecord
100
AcDbLayerTableRecord
2
0
70
0
6
CONTINUOUS
0
ENDTAB
0
TABLE
2
STYLE
5
3
100
AcDbSymbolTable
70
1
0
STYLE
5
11
100
AcDbSymbolTableRecord
100
AcDbTextStyleTableRecord
2
STANDARD
70
0
0
ENDTAB
0
TABLE
2
VIEW
5
6
100
AcDbSymbolTable
70
0
0
ENDTAB
0
TABLE
2
UCS
5
7
100
AcDbSymbolTable
70
0
0
ENDTAB
0
TABLE
2
APPID
5
9
100
AcDbSymbolTable
70
2
0
APPID
5
12
100
AcDbSymbolTableRecord
100
AcDbRegAppTableRecord
2
ACAD
70
0
0
ENDTAB
0
TABLE
2
DIMSTYLE
5
A
100
AcDbSymbolTable
70
1
0
ENDTAB
0
TABLE
2
BLOCK_RECORD
5
1
100
AcDbSymbolTable
70
1
0
BLOCK_RECORD
5
1F
100
AcDbSymbolTableRecord
100
AcDbBlockTableRecord
2
*MODEL_SPACE
0
BLOCK_RECORD
5
1B
100
AcDbSymbolTableRecord
100
AcDbBlockTableRecord
2
*PAPER_SPACE
0
ENDTAB
0
ENDSEC
0
SECTION
2
BLOCKS
0
BLOCK
5
20
100
AcDbEntity
100
AcDbBlockBegin
2
*MODEL_SPACE
0
ENDBLK
5
21
100
AcDbEntity
100
AcDbBlockEnd
0
BLOCK
5
1C
100
AcDbEntity
100
AcDbBlockBegin
2
*PAPER_SPACE
0
ENDBLK
5
1D
100
AcDbEntity
100
AcDbBlockEnd
0
ENDSEC
0
SECTION
2
ENTITIES
0
CIRCLE
5
100
100
AcDbEntity
8
0
100
AcDbCircle
10
-128.32440784151615
20
0.27252248212357832
30
0
40
1.6000000000000014
210
0
220
0
230
1
0
CIRCLE
5
101
100
AcDbEntity
8
0
100
AcDbCircle
10
-138.32440784151615
20
0.27252248212358277
30
0
40
1.6000000000000014
210
0
220
0
230
1
0
LWPOLYLINE
5
102
100
AcDbEntity
8
0
100
AcDbPolyline
90
8
70
1
43
0.0
10
-789.24999999999977
20
-0.55000001753533034
42
-2.4142135623730949
10
-788.74999999999989
20
-0.0500000175353588
10
-782.99999999999977
20
-0.050000017535358862
42
-2.4142135623730949
10
-782.49999999999989
20
-0.55000001753535921
10
-782.49999999999989
20
-14.450000017535389
42
-2.4142135623730949
10
-782.99999999999977
20
-14.950000017535361
10
-788.74999999999989
20
-14.950000017535361
42
-2.4142135623730949
10
-789.24999999999977
20
-14.450000017535361
0
LWPOLYLINE
5
103
100
AcDbEntity
8
0
100
AcDbPolyline
90
8
70
1
43
0.0
10
9.2500000000000071
20
-0.050000017535358723
42
-2.4142135623730931
10
9.7500000000000071
20
-0.55000001753535921
10
9.7500000000000071
20
-14.450000017535363
42
-2.4142135623730918
10
9.2500000000000071
20
-14.950000017535361
10
3.5000000000000075
20
-14.950000017535361
42
-2.4142135623730949
10
3.0000000000000071
20
-14.450000017535361
10
3.0000000000000062
20
-0.55000001753535877
42
-2.4142135623730949
10
3.5000000000000053
20
-0.0500000175353588
0
LWPOLYLINE
5
104
100
AcDbEntity
8
0
100
AcDbPolyline
90
324
70
1
43
0.0
10
-36.5
20
43.757359312880823
42
-0.41421356237309176
10
-34.5
20
41.757359312880816
10
-34.5
20
21.999999999999901
42
0.41421356237309503
10
-32.5
20
19.99999999999989
10
-23
20
19.999999999999922
10
-23.000000000000011
20
14.25093614082291
42
-0.46630765815501285
10
-24.173648177666962
20
13.266128387810717
10
-26.826351822333052
20
13.733871612189137
42
0.46630765815500863
10
-28.000000000000043
20
12.74906385917693
10
-28.000000000000004
20
9.2509361408229278
42
0.46630765815496034
10
-26.826351822333194
20
8.2661283878106868
10
-24.173648177666895
20
8.7338716121889384
42
-0.46630765815498598
10
-22.999999999999972
20
7.7490638591766992
10
-23
20
7.4999999999999156
42
0.41421356237308626
10
-22.000000000000028
20
6.4999999999999147
10
-17.999999999999972
20
6.4999999999999103
42
0.41421356237309015
10
-17.000000000000028
20
7.499999999999913
10
-16.999999999999993
20
7.7490638591766734
42
-0.46630765815495967
10
-15.82635182233318
20
8.7338716121889064
10
-13.173648177666948
20
8.2661283878106531
42
0.4663076581549977
10
-12.000000000000028
20
9.2509361408228603
10
-12.00000000000002
20
12.749063859177166
42
0.46630765815499775
10
-13.173648177666948
20
13.733871612189372
10
-15.826351822333022
20
13.266128387810896
42
-0.46630765815500297
10
-17.000000000000078
20
14.250936140823185
10
-17.000000000000007
20
19.999999999999915
10
1.7763568394002505e-14
20
19.999999999999893
10
15.000000000000014
20
20.000000279396769
10
15
20
-30.00000002364882
10
1.7763568394002505e-14
20
-30.000000000000103
10
-17.000000000000007
20
-30.000000000000107
10
-16.999999999999986
20
-24.250936140823377
42
-0.46630765815502678
10
-15.826351822332967
20
-23.266128387811197
10
-13.173648177666948
20
-23.733871612189571
42
0.46630765815499631
10
-12.000000000000028
20
-22.749063859177365
10
-12.00000000000002
20
-19.250936140823359
42
0.46630765815501934
10
-13.173648177667019
20
-18.266128387811158
10
-15.8263518223331
20
-18.733871612189429
42
-0.46630765815498038
10
-17.000000000000032
20
-17.749063859177166
10
-16.999999999999989
20
-17.500000000000107
42
0.41421356237309048
10
-17.999999999999972
20
-16.500000000000103
10
-22.000000000000028
20
-16.500000000000103
42
0.41421356237308526
10
-22.999999999999972
20
-17.500000000000103
10
-23.000000000000014
20
-17.749063859176882
42
-0.46630765815496544
10
-24.17364817766682
20
-18.733871612189095
10
-26.826351822333194
20
-18.26612838781088
42
0.46630765815496122
10
-27.999999999999954
20
-19.250936140823114
10
-28.000000000000011
20
-22.749063859177188
42
0.46630765815500602
10
-26.826351822333052
20
-23.733871612189414
10
-24.173648177666898
20
-23.266128387811086
42
-0.46630765815498365
10
-22.999999999999972
20
-24.250936140823324
10
-23.000000000000007
20
-30.000000000000103
10
-140.25000000000003
20
-30.000000000000107
10
-140.25
20
-24.250936140823374
42
-0.4663076581550108
10
-139.07635182233307
20
-23.266128387811179
10
-136.42364817766693
20
-23.733871612189574
42
0.46630765815499636
10
-135.25000000000006
20
-22.749063859177365
10
-135.25000000000003
20
-19.250936140823352
42
0.46630765815500724
10
-136.42364817766696
20
-18.266128387811147
10
-139.07635182233315
20
-18.73387161218939
42
-0.46630765815496311
10
-140.25000000000003
20
-17.749063859177166
10
-140.25
20
-17.500000000000107
42
0.4142135623730957
10
-141.25
20
-16.500000000000107
10
-145.25
20
-16.500000000000103
42
0.41421356237309959
10
-146.25
20
-17.500000000000103
10
-146.24999999999997
20
-17.749063859176882
42
-0.46630765815498648
10
-147.42364817766688
20
-18.733871612189105
10
-150.07635182233315
20
-18.266128387810888
42
0.46630765815497499
10
-151.24999999999997
20
-19.250936140823114
10
-151.25000000000003
20
-22.749063859177188
42
0.46630765815500097
10
-150.07635182233309
20
-23.733871612189411
10
-147.42364817766691
20
-23.266128387811122
42
-0.46630765815498099
10
-146.25
20
-24.25093614082332
10
-146.25
20
-30.000000000000103
10
-263.5
20
-30.000000000000107
10
-263.5
20
-24.250936140823391
42
-0.4663076581550194
10
-262.32635182233298
20
-23.266128387811204
10
-259.67364817766702
20
-23.73387161218956
42
0.46630765815500186
10
-258.50000000000011
20
-22.749063859177355
10
-258.50000000000011
20
-19.250936140823367
42
0.46630765815501263
10
-259.67364817766708
20
-18.266128387811165
10
-262.32635182233315
20
-18.733871612189343
42
-0.46630765815497299
10
-263.5
20
-17.749063859177166
10
-263.5
20
-17.500000000000103
42
0.41421356237309503
10
-264.5
20
-16.500000000000107
10
-268.5
20
-16.500000000000103
42
0.41421356237309437
10
-269.5
20
-17.500000000000103
10
-269.5
20
-17.749063859176882
42
-0.46630765815497244
10
-270.67364817766691
20
-18.733871612189091
10
-273.32635182233321
20
-18.266128387810884
42
0.46630765815496755
10
-274.5
20
-19.250936140823104
10
-274.5
20
-22.749063859177177
42
0.46630765815499009
10
-273.32635182233309
20
-23.733871612189404
10
-270.67364817766696
20
-23.266128387811086
42
-0.46630765815499603
10
-269.5
20
-24.250936140823324
10
-269.5
20
-30.000000000000103
10
-386.75000000000006
20
-30.000000000000107
10
-386.74999999999989
20
-24.250936140823395
42
-0.46630765815502251
10
-385.57635182233298
20
-23.2661283878112
10
-382.92364817766702
20
-23.733871612189557
42
0.46630765815501279
10
-381.75000000000011
20
-22.749063859177355
10
-381.75000000000006
20
-19.250936140823367
42
0.46630765815499076
10
-382.92364817766696
20
-18.266128387811154
10
-385.57635182233304
20
-18.733871612189311
42
-0.46630765815501701
10
-386.75
20
-17.749063859177166
10
-386.75
20
-17.500000000000107
42
0.4142135623730957
10
-387.75
20
-16.500000000000103
10
-391.75
20
-16.500000000000103
42
0.4142135623730957
10
-392.75000000000006
20
-17.500000000000107
10
-392.75
20
-17.749063859176879
42
-0.46630765815495845
10
-393.92364817766691
20
-18.733871612189105
10
-396.57635182233315
20
-18.266128387810888
42
0.46630765815498937
10
-397.75000000000006
20
-19.2509361408231
10
-397.75000000000006
20
-22.749063859177191
42
0.46630765815501257
10
-396.57635182233309
20
-23.733871612189397
10
-393.92364817766685
20
-23.266128387811115
42
-0.46630765815495351
10
-392.75000000000006
20
-24.250936140823324
10
-392.75
20
-30.000000000000103
10
-510.00000000000006
20
-30.000000000000107
10
-509.99999999999994
20
-24.250936140823395
42
-0.46630765815502201
10
-508.82635182233298
20
-23.266128387811193
10
-506.17364817766708
20
-23.733871612189557
42
0.46630765815501279
10
-505
20
-22.749063859177355
10
-505.00000000000006
20
-19.250936140823367
42
0.46630765815499042
10
-506.17364817766702
20
-18.266128387811147
10
-508.82635182233315
20
-18.733871612189354
42
-0.46630765815495256
10
-510
20
-17.749063859177163
10
-510
20
-17.500000000000103
42
0.41421356237309437
10
-511
20
-16.500000000000099
10
-515
20
-16.500000000000103
42
0.4142135623730957
10
-516
20
-17.500000000000107
10
-516.00000000000011
20
-17.749063859176879
42
-0.46630765815495889
10
-517.17364817766691
20
-18.733871612189095
10
-519.82635182233321
20
-18.266128387810888
42
0.46630765815499076
10
-521
20
-19.250936140823104
10
-521.00000000000011
20
-22.749063859177191
42
0.46630765815499026
10
-519.82635182233321
20
-23.733871612189414
10
-517.17364817766702
20
-23.266128387810987
42
-0.46630765815495218
10
-516
20
-24.250936140823324
10
-516
20
-30.000000000000103
10
-633.25000000000011
20
-30.000000000000107
10
-633.25
20
-24.250936140823395
42
-0.46630765815502251
10
-632.07635182233298
20
-23.2661283878112
10
-629.42364817766713
20
-23.733871612189557
42
0.46630765815501279
10
-628.25000000000023
20
-22.749063859177355
10
-628.25000000000011
20
-19.250936140823367
42
0.46630765815499053
10
-629.42364817766702
20
-18.26612838781115
10
-632.07635182233309
20
-18.733871612189382
42
-0.46630765815501579
10
-633.25000000000011
20
-17.74906385917717
10
-633.25
20
-17.50000000000011
42
0.41421356237309631
10
-634.25
20
-16.500000000000107
10
-638.25
20
-16.500000000000103
42
0.41421356237309437
10
-639.25000000000011
20
-17.500000000000103
10
-639.25
20
-17.749063859176882
42
-0.46630765815497871
10
-640.42364817766702
20
-18.733871612189116
10
-643.07635182233321
20
-18.266128387810891
42
0.46630765815499087
10
-644.25000000000011
20
-19.250936140823104
10
-644.25000000000011
20
-22.749063859177205
42
0.46630765815499148
10
-643.07635182233321
20
-23.733871612189404
10
-640.42364817766702
20
-23.2661283878112
42
-0.46630765815497904
10
-639.25000000000011
20
-24.250936140823324
10
-639.25
20
-30.000000000000103
10
-756.5
20
-30.000000000000107
10
-756.5
20
-24.250936140823356
42
-0.46630765815502184
10
-755.32635182233321
20
-23.266128387811161
10
-752.67364817766691
20
-23.733871612189596
42
0.46630765815499076
10
-751.5
20
-22.749063859177383
10
-751.5
20
-19.250936140823342
42
0.46630765815499103
10
-752.67364817766691
20
-18.266128387811133
10
-755.32635182233321
20
-18.733871612189407
42
-0.46630765815501823
10
-756.5
20
-17.749063859177173
10
-756.5
20
-17.50000000000011
42
0.41421356237309631
10
-757.5
20
-16.500000000000107
10
-761.5
20
-16.500000000000103
42
0.41421356237309437
10
-762.5
20
-17.500000000000103
10
-762.5
20
-17.749063859176882
42
-0.46630765815502001
10
-763.67364817766679
20
-18.733871612189098
10
-766.32635182233321
20
-18.266128387810888
42
0.46630765815499009
10
-767.5
20
-19.2509361408231
10
-767.5
20
-22.749063859177191
42
0.46630765815499103
10
-766.32635182233321
20
-23.7338716121894
10
-763.67364817766679
20
-23.266128387811086
42
-0.46630765815501812
10
-762.5
20
-24.25093614082332
10
-762.5
20
-30.000000000000107
10
-779.50000000000023
20
-30.00000000000011
10
-794.49999999999989
20
-30.000000023648823
10
-794.49999999999989
20
20.000000279396765
10
-779.50000000000023
20
19.99999999999989
10
-762.5
20
19.999999999999922
10
-762.50000000000011
20
14.250936140822892
42
-0.46630765815502295
10
-763.67364817766679
20
13.266128387810703
10
-766.32635182233321
20
13.733871612189166
42
0.46630765815499081
10
-767.50000000000011
20
12.749063859176953
10
-767.5
20
9.2509361408229225
42
0.46630765815498892
10
-766.32635182233321
20
8.2661283878107046
10
-763.67364817766679
20
8.7338716121889419
42
-0.4663076581550189
10
-762.5
20
7.7490638591767045
10
-762.5
20
7.4999999999999165
42
0.4142135623730957
10
-761.5
20
6.4999999999999147
10
-757.5
20
6.4999999999999103
42
0.41421356237309537
10
-756.5
20
7.4999999999999112
10
-756.5
20
7.7490638591766912
42
-0.46630765815502195
10
-755.32635182233321
20
8.7338716121888851
10
-752.67364817766691
20
8.2661283878106477
42
0.46630765815499114
10
-751.5
20
9.2509361408228621
10
-751.5
20
12.749063859177189
42
0.46630765815499248
10
-752.67364817766691
20
13.733871612189386
10
-755.32635182233321
20
13.266128387810937
42
-0.46630765815501879
10
-756.5
20
14.250936140823175
10
-756.5
20
19.999999999999911
10
-639.25
20
19.999999999999922
10
-639.25
20
14.250936140822892
42
-0.46630765815498082
10
-640.42364817766702
20
13.266128387810685
10
-643.07635182233321
20
13.733871612189164
42
0.46630765815499087
10
-644.25000000000023
20
12.749063859176953
10
-644.25000000000011
20
9.25093614082291
42
0.46630765815498926
10
-643.07635182233321
20
8.2661283878107064
10
-640.42364817766702
20
8.7338716121888229
42
-0.46630765815498021
10
-639.25000000000011
20
7.7490638591766983
10
-639.25
20
7.4999999999999165
42
0.4142135623730957
10
-638.25
20
6.4999999999999147
10
-634.25
20
6.4999999999999103
42
0.4142135623730957
10
-633.25000000000011
20
7.4999999999999121
10
-633.25
20
7.7490638591766645
42
-0.46630765815501535
10
-632.07635182233309
20
8.733871612188862
10
-629.42364817766702
20
8.2661283878106424
42
0.46630765815499048
10
-628.25000000000023
20
9.250936140822855
10
-628.25000000000011
20
12.749063859177152
42
0.46630765815500985
10
-629.42364817766713
20
13.733871612189377
10
-632.07635182233309
20
13.266128387810936
42
-0.46630765815507669
10
-633.25000000000011
20
14.250936140823178
10
-633.25000000000011
20
19.999999999999911
10
-516
20
19.999999999999922
10
-516.00000000000011
20
14.250936140822908
42
-0.46630765815502345
10
-517.17364817766702
20
13.266128387810713
10
-519.82635182233298
20
13.733871612189109
42
0.46630765815501279
10
-521
20
12.749063859176907
10
-521
20
9.2509361408229296
42
0.46630765815496655
10
-519.82635182233321
20
8.2661283878106993
10
-517.17364817766691
20
8.733871612189045
42
-0.46630765815495423
10
-516
20
7.7490638591766983
10
-516
20
7.4999999999999165
42
0.4142135623730957
10
-515
20
6.4999999999999147
10
-511
20
6.4999999999999103
42
0.4142135623730957
10
-510
20
7.4999999999999121
10
-510.00000000000006
20
7.7490638591766645
42
-0.46630765815501379
10
-508.82635182233309
20
8.7338716121888833
10
-506.17364817766702
20
8.2661283878106424
42
0.46630765815499042
10
-505
20
9.250936140822855
10
-505.00000000000006
20
12.749063859177152
42
0.4663076581550108
10
-506.17364817766708
20
13.733871612189359
10
-508.82635182233309
20
13.266128387810936
42
-0.46630765815507669
10
-510.00000000000006
20
14.250936140823178
10
-510.00000000000006
20
19.999999999999911
10
-392.75
20
19.999999999999922
10
-392.75000000000006
20
14.250936140822908
42
-0.46630765815496039
10
-393.92364817766691
20
13.266128387810703
10
-396.57635182233298
20
13.733871612189109
42
0.46630765815501141
10
-397.75
20
12.749063859176912
10
-397.75
20
9.2509361408229314
42
0.46630765815498959
10
-396.57635182233309
20
8.2661283878107241
10
-393.92364817766685
20
8.7338716121889064
42
-0.46630765815495456
10
-392.75000000000006
20
7.7490638591766983
10
-392.75
20
7.4999999999999165
42
0.4142135623730957
10
-391.75
20
6.4999999999999147
10
-387.75
20
6.4999999999999103
42
0.4142135623730957
10
-386.75
20
7.4999999999999121
10
-386.75000000000006
20
7.7490638591766636
42
-0.46630765815495234
10
-385.57635182233309
20
8.7338716121888709
10
-382.92364817766696
20
8.2661283878106424
42
0.46630765815499048
10
-381.75000000000011
20
9.250936140822855
10
-381.75000000000006
20
12.749063859177152
42
0.46630765815498937
10
-382.92364817766696
20
13.733871612189361
10
-385.57635182233304
20
13.266128387810936
42
-0.46630765815507669
10
-386.75000000000006
20
14.250936140823178
10
-386.75000000000006
20
19.999999999999911
10
-269.5
20
19.999999999999925
10
-269.5
20
14.250936140822915
42
-0.46630765815500669
10
-270.67364817766702
20
13.266128387810737
10
-273.32635182233304
20
13.733871612189134
42
0.46630765815501279
10
-274.5
20
12.749063859176935
10
-274.5
20
9.2509361408229278
42
0.466307658154958
10
-273.32635182233321
20
8.266128387810701
10
-270.67364817766691
20
8.7338716121889135
42
-0.46630765815497333
10
-269.5
20
7.7490638591766992
10
-269.5
20
7.4999999999999165
42
0.4142135623730957
10
-268.5
20
6.4999999999999147
10
-264.5
20
6.4999999999999103
42
0.41421356237309664
10
-263.5
20
7.4999999999999156
10
-263.5
20
7.7490638591766725
42
-0.46630765815496905
10
-262.32635182233315
20
8.7338716121888798
10
-259.67364817766702
20
8.2661283878106584
42
0.46630765815500319
10
-258.50000000000011
20
9.2509361408228692
10
-258.50000000000006
20
12.749063859177166
42
0.46630765815500269
10
-259.67364817766702
20
13.733871612189354
10
-262.32635182233304
20
13.266128387811019
42
-0.46630765815501107
10
-263.49999999999994
20
14.250936140823194
10
-263.5
20
19.999999999999911
10
-146.25
20
19.999999999999922
10
-146.25000000000003
20
14.250936140822908
42
-0.46630765815500952
10
-147.42364817766696
20
13.266128387810717
10
-150.07635182233309
20
13.733871612189137
42
0.46630765815500241
10
-151.25
20
12.749063859176928
10
-151.25
20
9.2509361408229296
42
0.46630765815496367
10
-150.07635182233318
20
8.2661283878106993
10
-147.42364817766688
20
8.7338716121889153
42
-0.46630765815498648
10
-146.25
20
7.7490638591766992
10
-146.25
20
7.4999999999999156
42
0.41421356237310053
10
-145.25
20
6.4999999999999147
10
-141.25
20
6.4999999999999103
42
0.41421356237309598
10
-140.25000000000003
20
7.499999999999913
10
-140.25
20
7.7490638591766778
42
-0.46630765815499159
10
-139.07635182233315
20
8.7338716121888798
10
-136.42364817766693
20
8.2661283878106495
42
0.46630765815499592
10
-135.25000000000006
20
9.2509361408228585
10
-135.25000000000003
20
12.749063859177166
42
0.46630765815500252
10
-136.42364817766696
20
13.733871612189359
10
-139.07635182233307
20
13.266128387810927
42
-0.4663076581549942
10
-140.25000000000003
20
14.250936140823182
10
-140.25000000000003
20
19.999999999999915
10
-77.499999999999972
20
19.99999999999989
42
0.41421356237309631
10
-75.499999999999972
20
21.999999999999901
10
-75.499999999999972
20
41.757359312880816
42
-0.41421356237309115
10
-73.499999999999972
20
43.757359312880823
0
CIRCLE
5
105
100
AcDbEntity
8
0
100
AcDbCircle
10
-70.499999999999972
20
38.757359312880823
30
-4.4408920985006262e-15
40
1.6000000000000003
210
0
220
-0
230
1
0
CIRCLE
5
106
100
AcDbEntity
8
0
100
AcDbCircle
10
-39.5
20
7.7573593128808147
30
0
40
1.6000000000000003
210
0
220
-0
230
1
0
CIRCLE
5
107
100
AcDbEntity
8
0
100
AcDbCircle
10
-39.499999999999986
20
38.757359312880823
30
-4.4408920985006262e-15
40
1.6000000000000003
210
0
220
-0
230
1
0
CIRCLE
5
108
100
AcDbEntity
8
0
100
AcDbCircle
10
-70.499999999999972
20
7.7573593128808236
30
0
40
1.6000000000000003
210
0
220
-0
230
1
0
CIRCLE
5
109
100
AcDbEntity
8
0
100
AcDbCircle
10
-54.999999999999972
20
23.257359312880823
30
0
40
12.000000000000002
210
0
220
0
230
1
0
LWPOLYLINE
5
110
100
AcDbEntity
8
0
100
AcDbPolyline
90
8
70
1
43
0.0
10
-649.49999999999909
20
-12.500000000000213
10
-649.49999999999909
20
2.499999999999809
42
0.41421356237309792
10
-654.49999999999909
20
7.4999999999998064
10
-669.49999999999977
20
7.4999999999998117
42
0.41421356237307572
10
-674.49999999999977
20
2.4999999999998579
10
-674.50000000000023
20
-12.50000000000008
42
0.41421356237309792
10
-669.50000000000023
20
-17.500000000000078
10
-654.49999999999909
20
-17.50000000000022
42
0.41421356237309814
0
ENDSEC
0
SECTION
2
OBJECTS
0
DICTIONARY
5
C
100
AcDbDictionary
3
ACAD_GROUP
350
D
3
ACAD_MLINESTYLE
350
17
0
DICTIONARY
5
D
100
AcDbDictionary
0
DICTIONARY
5
1A
330
C
100
AcDbDictionary
0
DICTIONARY
5
17
100
AcDbDictionary
0
ENDSEC
0
EOF
