0
SECTION
2
HEADER
9
$INSUNITS
70
4
9
$ACADVER
1
AC1014
9
$HANDSEED
5
FFFF
0
ENDSEC
0
SECTION
2
TABLES
0
TABLE
2
VPORT
5
8
100
AcDbSymbolTable
0
ENDTAB
0
TABLE
2
LTYPE
5
5
100
AcDbSymbolTable
0
LTYPE
5
14
100
AcDbSymbolTableRecord
100
AcDbLinetypeTableRecord
2
BYBLOCK
70
0
0
LTYPE
5
15
100
AcDbSymbolTableRecord
100
AcDbLinetypeTableRecord
2
BYLAYER
70
0
0
ENDTAB
0
TABLE
2
LAYER
5
2
100
AcDbSymbolTable
70
2
0
LAYER
5
50
100
AcDbSymbolTableRecord
100
AcDbLayerTableRecord
2
0
70
0
6
CONTINUOUS
0
ENDTAB
0
TABLE
2
STYLE
5
3
100
AcDbSymbolTable
70
1
0
STYLE
5
11
100
AcDbSymbolTableRecord
100
AcDbTextStyleTableRecord
2
STANDARD
70
0
0
ENDTAB
0
TABLE
2
VIEW
5
6
100
AcDbSymbolTable
70
0
0
ENDTAB
0
TABLE
2
UCS
5
7
100
AcDbSymbolTable
70
0
0
ENDTAB
0
TABLE
2
APPID
5
9
100
AcDbSymbolTable
70
2
0
APPID
5
12
100
AcDbSymbolTableRecord
100
AcDbRegAppTableRecord
2
ACAD
70
0
0
ENDTAB
0
TABLE
2
DIMSTYLE
5
A
100
AcDbSymbolTable
70
1
0
ENDTAB
0
TABLE
2
BLOCK_RECORD
5
1
100
AcDbSymbolTable
70
1
0
BLOCK_RECORD
5
1F
100
AcDbSymbolTableRecord
100
AcDbBlockTableRecord
2
*MODEL_SPACE
0
BLOCK_RECORD
5
1B
100
AcDbSymbolTableRecord
100
AcDbBlockTableRecord
2
*PAPER_SPACE
0
ENDTAB
0
ENDSEC
0
SECTION
2
BLOCKS
0
BLOCK
5
20
100
AcDbEntity
100
AcDbBlockBegin
2
*MODEL_SPACE
0
ENDBLK
5
21
100
AcDbEntity
100
AcDbBlockEnd
0
BLOCK
5
1C
100
AcDbEntity
100
AcDbBlockBegin
2
*PAPER_SPACE
0
ENDBLK
5
1D
100
AcDbEntity
100
AcDbBlockEnd
0
ENDSEC
0
SECTION
2
ENTITIES
0
CIRCLE
5
100
100
AcDbEntity
8
0
100
AcDbCircle
10
-265.00000000069895
20
258.31901474415537
30
3.5527136788005009e-14
40
1.6000000000000003
210
7.5663593326747533e-29
220
-1.1102230246251565e-16
230
1
0
CIRCLE
5
101
100
AcDbEntity
8
0
100
AcDbCircle
10
-265.00000000069895
20
268.31901474415537
30
0
40
1.6000000000000003
210
7.5663593326747533e-29
220
-1.1102230246251565e-16
230
1
0
CIRCLE
5
102
100
AcDbEntity
8
0
100
AcDbCircle
10
-265.00000000069895
20
278.31901474415537
30
0
40
1.6000000000000003
210
7.5663593326747533e-29
220
-1.1102230246251565e-16
230
1
0
CIRCLE
5
103
100
AcDbEntity
8
0
100
AcDbCircle
10
-265.00000000069895
20
288.31901474415537
30
0
40
1.6000000000000003
210
7.5663593326747533e-29
220
-1.1102230246251565e-16
230
1
0
CIRCLE
5
104
100
AcDbEntity
8
0
100
AcDbCircle
10
-265.00000000069895
20
298.31901474415537
30
3.5527136788005009e-14
40
1.6000000000000003
210
7.5663593326747533e-29
220
-1.1102230246251565e-16
230
1
0
CIRCLE
5
105
100
AcDbEntity
8
0
100
AcDbCircle
10
-265.00000000069895
20
308.31901474415537
30
-3.5527136788005009e-14
40
1.6000000000000003
210
7.5663593326747533e-29
220
-1.1102230246251565e-16
230
1
0
CIRCLE
5
106
100
AcDbEntity
8
0
100
AcDbCircle
10
-275.00000000069895
20
258.31901474415537
30
0
40
1.6000000000000003
210
7.5663593326747533e-29
220
-1.1102230246251565e-16
230
1
0
CIRCLE
5
107
100
AcDbEntity
8
0
100
AcDbCircle
10
-275.00000000069895
20
268.31901474415537
30
3.5527136788005009e-14
40
1.6000000000000003
210
7.5663593326747533e-29
220
-1.1102230246251565e-16
230
1
0
CIRCLE
5
108
100
AcDbEntity
8
0
100
AcDbCircle
10
-275.00000000069895
20
278.31901474415542
30
-3.5527136788005009e-14
40
1.6000000000000003
210
7.5663593326747533e-29
220
-1.1102230246251565e-16
230
1
0
CIRCLE
5
109
100
AcDbEntity
8
0
100
AcDbCircle
10
-275.00000000069895
20
288.31901474415537
30
3.5527136788005009e-14
40
1.6000000000000003
210
7.5663593326747533e-29
220
-1.1102230246251565e-16
230
1
0
CIRCLE
5
110
100
AcDbEntity
8
0
100
AcDbCircle
10
-275.00000000069895
20
298.31901474415537
30
0
40
1.6000000000000003
210
7.5663593326747533e-29
220
-1.1102230246251565e-16
230
1
0
CIRCLE
5
111
100
AcDbEntity
8
0
100
AcDbCircle
10
-275.00000000069895
20
308.31901474415537
30
-3.5527136788005009e-14
40
1.6000000000000003
210
7.5663593326747533e-29
220
-1.1102230246251565e-16
230
1
0
CIRCLE
5
112
100
AcDbEntity
8
0
100
AcDbCircle
10
-285.00000000069895
20
258.31901474415537
30
0
40
1.6000000000000003
210
7.5663593326747533e-29
220
-1.1102230246251565e-16
230
1
0
CIRCLE
5
113
100
AcDbEntity
8
0
100
AcDbCircle
10
-285.00000000069895
20
268.31901474415537
30
0
40
1.6000000000000003
210
7.5663593326747533e-29
220
-1.1102230246251565e-16
230
1
0
CIRCLE
5
114
100
AcDbEntity
8
0
100
AcDbCircle
10
-285.00000000069895
20
278.31901474415537
30
-3.5527136788005009e-14
40
1.6000000000000003
210
7.5663593326747533e-29
220
-1.1102230246251565e-16
230
1
0
CIRCLE
5
115
100
AcDbEntity
8
0
100
AcDbCircle
10
-285.00000000069895
20
288.31901474415537
30
0
40
1.6000000000000003
210
7.5663593326747533e-29
220
-1.1102230246251565e-16
230
1
0
CIRCLE
5
116
100
AcDbEntity
8
0
100
AcDbCircle
10
-285.00000000069895
20
298.31901474415537
30
0
40
1.6000000000000003
210
7.5663593326747533e-29
220
-1.1102230246251565e-16
230
1
0
CIRCLE
5
117
100
AcDbEntity
8
0
100
AcDbCircle
10
-285.00000000069895
20
308.31901474415537
30
0
40
1.6000000000000003
210
7.5663593326747533e-29
220
-1.1102230246251565e-16
230
1
0
CIRCLE
5
118
100
AcDbEntity
8
0
100
AcDbCircle
10
264.99999999930128
20
258.31901474415542
30
-3.5527136788005009e-14
40
1.6000000000000003
210
7.5663593326747533e-29
220
-1.1102230246251565e-16
230
1
0
CIRCLE
5
119
100
AcDbEntity
8
0
100
AcDbCircle
10
264.99999999930128
20
268.31901474415542
30
7.1054273576010019e-14
40
1.6000000000000003
210
7.5663593326747533e-29
220
-1.1102230246251565e-16
230
1
0
CIRCLE
5
120
100
AcDbEntity
8
0
100
AcDbCircle
10
264.99999999930128
20
278.31901474415548
30
-3.5527136788005009e-14
40
1.6000000000000003
210
7.5663593326747533e-29
220
-1.1102230246251565e-16
230
1
0
CIRCLE
5
121
100
AcDbEntity
8
0
100
AcDbCircle
10
264.99999999930128
20
288.31901474415542
30
0
40
1.6000000000000003
210
7.5663593326747533e-29
220
-1.1102230246251565e-16
230
1
0
CIRCLE
5
122
100
AcDbEntity
8
0
100
AcDbCircle
10
264.99999999930128
20
298.31901474415542
30
-3.5527136788005009e-14
40
1.6000000000000003
210
7.5663593326747533e-29
220
-1.1102230246251565e-16
230
1
0
CIRCLE
5
123
100
AcDbEntity
8
0
100
AcDbCircle
10
264.99999999930128
20
308.31901474415542
30
7.1054273576010019e-14
40
1.6000000000000003
210
7.5663593326747533e-29
220
-1.1102230246251565e-16
230
1
0
CIRCLE
5
124
100
AcDbEntity
8
0
100
AcDbCircle
10
274.99999999930128
20
258.31901474415548
30
-3.5527136788005009e-14
40
1.6000000000000003
210
7.5663593326747533e-29
220
-1.1102230246251565e-16
230
1
0
CIRCLE
5
125
100
AcDbEntity
8
0
100
AcDbCircle
10
274.99999999930128
20
268.31901474415542
30
3.5527136788005009e-14
40
1.6000000000000003
210
7.5663593326747533e-29
220
-1.1102230246251565e-16
230
1
0
CIRCLE
5
126
100
AcDbEntity
8
0
100
AcDbCircle
10
274.99999999930128
20
278.31901474415542
30
0
40
1.6000000000000003
210
7.5663593326747533e-29
220
-1.1102230246251565e-16
230
1
0
CIRCLE
5
127
100
AcDbEntity
8
0
100
AcDbCircle
10
274.99999999930128
20
288.31901474415542
30
-3.5527136788005009e-14
40
1.6000000000000003
210
7.5663593326747533e-29
220
-1.1102230246251565e-16
230
1
0
CIRCLE
5
128
100
AcDbEntity
8
0
100
AcDbCircle
10
274.99999999930128
20
298.31901474415542
30
-3.5527136788005009e-14
40
1.6000000000000003
210
7.5663593326747533e-29
220
-1.1102230246251565e-16
230
1
0
CIRCLE
5
129
100
AcDbEntity
8
0
100
AcDbCircle
10
274.99999999930128
20
308.31901474415542
30
3.5527136788005009e-14
40
1.6000000000000003
210
7.5663593326747533e-29
220
-1.1102230246251565e-16
230
1
0
CIRCLE
5
130
100
AcDbEntity
8
0
100
AcDbCircle
10
284.99999999930128
20
258.31901474415542
30
3.5527136788005009e-14
40
1.6000000000000003
210
7.5663593326747533e-29
220
-1.1102230246251565e-16
230
1
0
CIRCLE
5
131
100
AcDbEntity
8
0
100
AcDbCircle
10
284.99999999930128
20
268.31901474415542
30
0
40
1.6000000000000003
210
7.5663593326747533e-29
220
-1.1102230246251565e-16
230
1
0
CIRCLE
5
132
100
AcDbEntity
8
0
100
AcDbCircle
10
284.99999999930128
20
278.31901474415542
30
-3.5527136788005009e-14
40
1.6000000000000003
210
7.5663593326747533e-29
220
-1.1102230246251565e-16
230
1
0
CIRCLE
5
133
100
AcDbEntity
8
0
100
AcDbCircle
10
284.99999999930128
20
288.31901474415542
30
-3.5527136788005009e-14
40
1.6000000000000003
210
7.5663593326747533e-29
220
-1.1102230246251565e-16
230
1
0
CIRCLE
5
134
100
AcDbEntity
8
0
100
AcDbCircle
10
284.99999999930128
20
298.31901474415542
30
0
40
1.6000000000000003
210
7.5663593326747533e-29
220
-1.1102230246251565e-16
230
1
0
CIRCLE
5
135
100
AcDbEntity
8
0
100
AcDbCircle
10
284.99999999930128
20
308.31901474415542
30
0
40
1.6000000000000003
210
7.5663593326747533e-29
220
-1.1102230246251565e-16
230
1
0
LWPOLYLINE
5
136
100
AcDbEntity
8
0
100
AcDbPolyline
90
8
70
1
43
0.0
10
-186.25000000069878
20
300.6768791204243
42
-2.4142135623730949
10
-185.75000000069875
20
301.17687912042425
10
-174.25000000069875
20
301.1768791204243
42
-2.4142135623730949
10
-173.75000000069875
20
300.6768791204243
10
-173.75000000069875
20
293.47687912042431
42
-2.4142135623732162
10
-174.25000000069875
20
292.97687912042431
10
-185.75000000069875
20
292.97687912042431
42
-2.4142135623732162
10
-186.25000000069875
20
293.47687912042431
0
LWPOLYLINE
5
137
100
AcDbEntity
8
0
100
AcDbPolyline
90
8
70
1
43
0.0
10
-66.250000000698734
20
300.6768791204243
42
-2.4142135623730643
10
-65.750000000698734
20
301.1768791204243
10
-54.250000000698734
20
301.1768791204243
42
-2.4142135623732162
10
-53.750000000698734
20
300.67687912042436
10
-53.750000000698734
20
293.47687912042437
42
-2.4142135623732464
10
-54.250000000698719
20
292.97687912042437
10
-65.750000000698719
20
292.97687912042431
42
-2.4142135623730949
10
-66.250000000698719
20
293.47687912042437
0
LWPOLYLINE
5
138
100
AcDbEntity
8
0
100
AcDbPolyline
90
8
70
1
43
0.0
10
53.749999999301259
20
300.67687912042436
42
-2.4142135623730643
10
54.249999999301266
20
301.17687912042436
10
65.749999999301266
20
301.17687912042436
42
-2.4142135623732162
10
66.249999999301266
20
300.67687912042442
10
66.249999999301266
20
293.47687912042443
42
-2.4142135623731251
10
65.749999999301281
20
292.97687912042443
10
54.249999999301288
20
292.97687912042443
42
-2.4142135623733374
10
53.749999999301281
20
293.47687912042437
0
LWPOLYLINE
5
139
100
AcDbEntity
8
0
100
AcDbPolyline
90
8
70
1
43
0.0
10
174.24999999930125
20
292.97687912042443
42
-2.4142135623730949
10
173.74999999930125
20
293.47687912042443
10
173.74999999930134
20
300.67687912042436
42
-2.4142135623732162
10
174.24999999930125
20
301.17687912042442
10
185.74999999930125
20
301.17687912042442
42
-2.4142135623729732
10
186.24999999930125
20
300.67687912042436
10
186.24999999930128
20
293.47687912042443
42
-2.4142135623730949
10
185.74999999930125
20
292.97687912042443
0
LWPOLYLINE
5
140
100
AcDbEntity
8
0
100
AcDbPolyline
90
8
70
1
43
0.0
10
-242.85000000069874
20
275.81901474415525
42
-2.4142135623730949
10
-243.35000000069874
20
276.31901474415525
10
-243.35000000069874
20
282.81901474415525
42
-2.4142135623729732
10
-242.85000000069874
20
283.31901474415525
10
-237.15000000069875
20
283.31901474415525
42
-2.414213562372852
10
-236.65000000069875
20
282.8190147441552
10
-236.65000000069875
20
276.3190147441552
42
-2.4142135623730949
10
-237.15000000069875
20
275.8190147441552
0
LWPOLYLINE
5
141
100
AcDbEntity
8
0
100
AcDbPolyline
90
8
70
1
43
0.0
10
-122.85000000069871
20
275.81901474415531
42
-2.4142135623730949
10
-123.35000000069871
20
276.31901474415531
10
-123.35000000069871
20
282.81901474415525
42
-2.4142135623729732
10
-122.85000000069871
20
283.31901474415525
10
-117.15000000069871
20
283.31901474415525
42
-2.4142135623732162
10
-116.6500000006987
20
282.81901474415531
10
-116.6500000006987
20
276.31901474415531
42
-2.4142135623729732
10
-117.15000000069871
20
275.81901474415525
0
CIRCLE
5
142
100
AcDbEntity
8
0
100
AcDbCircle
10
-120.00000000069872
20
303.31901474415525
30
3.5527136788005009e-14
40
1.6000000000000014
210
7.5662115007601872e-29
220
1.1102230246251565e-16
230
1
0
LWPOLYLINE
5
143
100
AcDbEntity
8
0
100
AcDbPolyline
90
8
70
1
43
0.0
10
-2.8500000006987185
20
275.81901474415531
42
-2.4142135623730949
10
-3.3500000006987256
20
276.31901474415531
10
-3.3500000006987274
20
282.81901474415531
42
-2.4142135623730949
10
-2.8500000006987269
20
283.31901474415531
10
2.8499999993012826
20
283.31901474415531
42
-2.4142135623732162
10
3.3499999993012897
20
282.81901474415531
10
3.3499999993012914
20
276.31901474415531
42
-2.4142135623730949
10
2.849999999301291
20
275.81901474415525
0
CIRCLE
5
144
100
AcDbEntity
8
0
100
AcDbCircle
10
-6.9871568214828114e-10
20
251.75047224923148
30
3.5527136788005009e-14
40
1.6000000000000014
210
7.5662115007601872e-29
220
1.1102230246251565e-16
230
1
0
CIRCLE
5
145
100
AcDbEntity
8
0
100
AcDbCircle
10
-6.9872461336661817e-10
20
303.31901474415531
30
-3.5527136788005009e-14
40
1.6000000000000014
210
7.5662115007601872e-29
220
1.1102230246251565e-16
230
1
0
CIRCLE
5
146
100
AcDbEntity
8
0
100
AcDbCircle
10
119.99999999930128
20
251.75047224923156
30
-3.5527136788005009e-14
40
1.6000000000000014
210
7.5662115007601872e-29
220
1.1102230246251565e-16
230
1
0
CIRCLE
5
147
100
AcDbEntity
8
0
100
AcDbCircle
10
119.99999999930128
20
303.31901474415531
30
0
40
1.6000000000000014
210
7.5662115007601872e-29
220
1.1102230246251565e-16
230
1
0
CIRCLE
5
148
100
AcDbEntity
8
0
100
AcDbCircle
10
239.99999999930125
20
251.75047224923159
30
0
40
1.6000000000000014
210
7.5662115007601872e-29
220
1.1102230246251565e-16
230
1
0
CIRCLE
5
149
100
AcDbEntity
8
0
100
AcDbCircle
10
239.99999999930125
20
303.31901474415537
30
7.1054273576010019e-14
40
1.6000000000000014
210
7.5662115007601872e-29
220
1.1102230246251565e-16
230
1
0
CIRCLE
5
150
100
AcDbEntity
8
0
100
AcDbCircle
10
-240.00000000069875
20
303.31901474415525
30
0
40
1.6000000000000014
210
7.5662115007601872e-29
220
1.1102230246251565e-16
230
1
0
CIRCLE
5
151
100
AcDbEntity
8
0
100
AcDbCircle
10
-120.00000000069872
20
251.75047224923148
30
0
40
1.6000000000000014
210
7.5662115007601872e-29
220
1.1102230246251565e-16
230
1
0
CIRCLE
5
152
100
AcDbEntity
8
0
100
AcDbCircle
10
-240.00000000069875
20
251.75047224923148
30
0
40
1.6000000000000014
210
7.5662115007601872e-29
220
1.1102230246251565e-16
230
1
0
LWPOLYLINE
5
153
100
AcDbEntity
8
0
100
AcDbPolyline
90
8
70
1
43
0.0
10
237.14999999930126
20
275.81901474415542
42
-2.4142135623730949
10
236.64999999930126
20
276.31901474415542
10
236.6499999993012
20
282.81901474415537
42
-2.4142135623729732
10
237.14999999930126
20
283.31901474415537
10
242.84999999930125
20
283.31901474415537
42
-2.4142135623732162
10
243.34999999930125
20
282.81901474415537
10
243.34999999930122
20
276.31901474415537
42
-2.4142135623730949
10
242.84999999930125
20
275.81901474415537
0
LWPOLYLINE
5
154
100
AcDbEntity
8
0
100
AcDbPolyline
90
8
70
1
43
0.0
10
117.14999999930129
20
275.81901474415537
42
-2.4142135623730949
10
116.64999999930129
20
276.31901474415537
10
116.64999999930129
20
282.81901474415537
42
-2.4142135623732162
10
117.14999999930129
20
283.31901474415537
10
122.84999999930129
20
283.31901474415537
42
-2.4142135623733374
10
123.3499999993013
20
282.81901474415542
10
123.3499999993013
20
276.31901474415537
42
-2.4142135623730949
10
122.84999999930129
20
275.81901474415537
0
LWPOLYLINE
5
155
100
AcDbEntity
8
0
100
AcDbPolyline
90
4
70
1
43
0.0
10
289.99999999930122
20
243.31901474415545
10
-290.00000000069878
20
243.31901474415534
10
-290.00000000069878
20
318.31901474415531
10
289.99999999930122
20
318.31901474415542
0
ENDSEC
0
SECTION
2
OBJECTS
0
DICTIONARY
5
C
100
AcDbDictionary
3
ACAD_GROUP
350
D
3
ACAD_MLINESTYLE
350
17
0
DICTIONARY
5
D
100
AcDbDictionary
0
DICTIONARY
5
1A
330
C
100
AcDbDictionary
0
DICTIONARY
5
17
100
AcDbDictionary
0
ENDSEC
0
EOF
